#Command: "C:\Program Files (x86)\Microsoft Visual Studio\2019\Community\VC\Tools\MSVC\14.23.28105\bin\HostX64\x64\link.exe" /ERRORREPORT:QUEUE @C:\Users\Asus\AppData\Local\Temp\tmpc167ccc03e214c63a9a5f4eec5fe784a.rsp /nologo /incremental /fullbuild
^C:\USERS\ASUS\EXAMPLE\BUILD\TEST\EXAMPLETESTS.DIR\DEBUG\EXAMPLETESTS.OBJ
C:\USERS\ASUS\EXAMPLE\BUILD\TEST\DEBUG\EXAMPLETESTS.PDB
