^C:\USERS\ASUS\EXAMPLE\GOOGLETEST\GOOGLETEST\SRC\GTEST-ALL.CC
C:\USERS\ASUS\EXAMPLE\BUILD\BIN\DEBUG\GTESTPDB_DEBUG_POSTFIX-NOTFOUND.PDB
C:\USERS\ASUS\EXAMPLE\BUILD\GOOGLETEST\GOOGLETEST\GTEST.DIR\DEBUG\GTEST-ALL.OBJ
