^C:\USERS\ASUS\EXAMPLE\BUILD\GOOGLETEST\GOOGLEMOCK\GMOCK.DIR\DEBUG\GMOCK-ALL.OBJ|C:\USERS\ASUS\EXAMPLE\BUILD\GOOGLETEST\GOOGLEMOCK\GMOCK.DIR\DEBUG\GTEST-ALL.OBJ
C:\USERS\ASUS\EXAMPLE\BUILD\GOOGLETEST\GOOGLEMOCK\GMOCK.DIR\DEBUG\GTEST-ALL.OBJ
C:\USERS\ASUS\EXAMPLE\BUILD\GOOGLETEST\GOOGLEMOCK\GMOCK.DIR\DEBUG\GMOCK-ALL.OBJ
C:\WINDOWS\GLOBALIZATION\SORTING\SORTDEFAULT.NLS
